Introduction to Data Wrangling using {dplyr}
…
count: false
 
Peeping into the pipe
.panel1-flip_pipe-auto[

```r
*penguins
```
]
 
.panel2-flip_pipe-auto[

```
## # A tibble: 344 x 8
##    species island    bill_length_mm bill_depth_mm
##    <fct>   <fct>              <dbl>         <dbl>
##  1 Adelie  Torgersen           39.1          18.7
##  2 Adelie  Torgersen           39.5          17.4
##  3 Adelie  Torgersen           40.3          18  
##  4 Adelie  Torgersen           NA            NA  
##  5 Adelie  Torgersen           36.7          19.3
##  6 Adelie  Torgersen           39.3          20.6
##  7 Adelie  Torgersen           38.9          17.8
##  8 Adelie  Torgersen           39.2          19.6
##  9 Adelie  Torgersen           34.1          18.1
## 10 Adelie  Torgersen           42            20.2
## # ... with 334 more rows, and 4 more variables:
## #   flipper_length_mm <int>, body_mass_g <int>,
## #   sex <fct>, year <int>
```
…
Peeping into the pipe
.panel1-flip_pipe-auto[

```r
penguins %>%
* filter(species ==
*          "Gentoo")
```
]
 
.panel2-flip_pipe-auto[

```
## # A tibble: 124 x 8
##    species island bill_length_mm bill_depth_mm
##    <fct>   <fct>           <dbl>         <dbl>
##  1 Gentoo  Biscoe           46.1          13.2
##  2 Gentoo  Biscoe           50            16.3
##  3 Gentoo  Biscoe           48.7          14.1
##  4 Gentoo  Biscoe           50            15.2
##  5 Gentoo  Biscoe           47.6          14.5
##  6 Gentoo  Biscoe           46.5          13.5
##  7 Gentoo  Biscoe           45.4          14.6
##  8 Gentoo  Biscoe           46.7          15.3
##  9 Gentoo  Biscoe           43.3          13.4
## 10 Gentoo  Biscoe           46.8          15.4
## # ... with 114 more rows, and 4 more variables:
## #   flipper_length_mm <int>, body_mass_g <int>,
## #   sex <fct>, year <int>
```
…
.panel2-flip_pipe-auto[

```
## # A tibble: 124 x 9
##    species island bill_length_mm bill_depth_mm
##    <fct>   <fct>           <dbl>         <dbl>
##  1 Gentoo  Biscoe           46.1          13.2
##  2 Gentoo  Biscoe           50            16.3
##  3 Gentoo  Biscoe           48.7          14.1
##  4 Gentoo  Biscoe           50            15.2
##  5 Gentoo  Biscoe           47.6          14.5
##  6 Gentoo  Biscoe           46.5          13.5
##  7 Gentoo  Biscoe           45.4          14.6
##  8 Gentoo  Biscoe           46.7          15.3
##  9 Gentoo  Biscoe           43.3          13.4
## 10 Gentoo  Biscoe           46.8          15.4
## # ... with 114 more rows, and 5 more variables:
## #   flipper_length_mm <int>, body_mass_g <int>,
## #   sex <fct>, year <int>, is_fluffy <dbl>
```
…
