Introduction to R
…
class: left, middle

# Accessing and Subseting specific elements

.yscroll[
Only those observations with mass more than 4000, all columns

```r
penguins[penguins$body_mass_g > 4000, ]
```

```
## # A tibble: 174 x 8
##    species island    bill_length_mm bill_depth_mm flipper_length_~ body_mass_g
##    <fct>   <fct>              <dbl>         <dbl>            <int>       <int>
##  1 NA      NA                  NA            NA                 NA          NA
##  2 Adelie  Torgersen           39.2          19.6              195        4675
##  3 Adelie  Torgersen           42            20.2              190        4250
##  4 Adelie  Torgersen           34.6          21.1              198        4400
##  5 Adelie  Torgersen           42.5          20.7              197        4500
##  6 Adelie  Torgersen           46            21.5              194        4200
##  7 Adelie  Dream               39.2          21.1              196        4150
##  8 Adelie  Dream               39.8          19.1              184        4650
##  9 Adelie  Dream               44.1          19.7              196        4400
## 10 Adelie  Dream               39.6          18.8              190        4600
## # ... with 164 more rows, and 2 more variables: sex <fct>, year <int>
```
…
